SytemC/memory_VCD.vcd
$date
     Jul 20, 2022       23:39:18
$end

$version
 SystemC 2.3.3-Accellera --- Jul 15 2022 19:21:46
$end

$timescale
     1 ps
$end

$scope module SystemC $end
$var wire    1  aaaaa  clk       $end
$var wire    1  aaaab  cpu_req       $end
$var wire    1  aaaac  cpu_gnt       $end
$var wire    1  aaaad  dma_req       $end
$var wire    1  aaaae  dma_gnt       $end
$var wire   16  aaaaf  Addrbus [15:0]  $end
$var wire   16  aaaag  DataBus [15:0]  $end
$var wire    1  aaaah  out_fully       $end
$var wire    1  aaaai  in_fully       $end
$var wire    1  aaaaj  out_complete       $end
$var wire    1  aaaak  interrupt       $end
$var wire   16  aaaal  addr_reg [15:0]  $end
$var wire   16  aaaam  number_reg [15:0]  $end
$var wire   16  aaaan  control_reg [15:0]  $end
$var wire    1  aaaao  read_flag       $end
$var wire    1  aaaap  w2fir       $end
$var wire   32  aaaaq  data2fir [31:0]  $end
$var wire   32  aaaar  add2fir [31:0]  $end
$var wire    1  aaaas  w2dma       $end
$var wire   32  aaaat  data2dma [31:0]  $end
$var wire   32  aaaau  add2dma [31:0]  $end
$var wire    1  aaaav  start       $end
$upscope $end
$enddefinitions  $end

$comment
All initial values are dumped below at time 0 sec = 0 timescale units.
$end

$dumpvars
0aaaaa
xaaaab
xaaaac
xaaaad
xaaaae
bXXXXXXXXXXXXXXXX aaaaf
bXXXXXXXXXXXXXXXX aaaag
xaaaah
xaaaai
xaaaaj
0aaaak
bXXXXXXXXXXXXXXXX aaaal
bXXXXXXXXXXXXXXXX aaaam
bXXXXXXXXXXXXXXXX aaaan
xaaaao
xaaaap
b0 aaaaq
b0 aaaar
xaaaas
b0 aaaat
b0 aaaau
0aaaav
$end

#1000
1aaaaa
1aaaab
1aaaac

#2000
0aaaaa

#3000
1aaaaa

#4000
0aaaaa

#5000
1aaaaa

#6000
0aaaaa

#7000
1aaaaa
0aaaab
0aaaac

#8000
0aaaaa

#9000
1aaaaa
1aaaab
1aaaac

#10000
0aaaaa

#11000
1aaaaa

#12000
0aaaaa

#13000
1aaaaa
b101100000000 aaaaf
b11 aaaag

#14000
0aaaaa

#15000
1aaaaa
0aaaab
0aaaac
bXXXXXXXXXXXXXXXX aaaaf
bXXXXXXXXXXXXXXXX aaaag

#16000
0aaaaa

#17000
1aaaaa
1aaaab
1aaaac

#18000
0aaaaa

#19000
1aaaaa

#20000
0aaaaa

#21000
1aaaaa

#22000
0aaaaa

#23000
1aaaaa
0aaaab
0aaaac

#24000
0aaaaa

#25000
1aaaaa
1aaaab
1aaaac

#26000
0aaaaa

#27000
1aaaaa

#28000
0aaaaa

#29000
1aaaaa
b101100000001 aaaaf
b1 aaaag

#30000
0aaaaa

#31000
1aaaaa
0aaaab
0aaaac
bXXXXXXXXXXXXXXXX aaaaf
bXXXXXXXXXXXXXXXX aaaag

#32000
0aaaaa

#33000
1aaaaa
1aaaab
1aaaac

#34000
0aaaaa

#35000
1aaaaa

#36000
0aaaaa

#37000
1aaaaa

#38000
0aaaaa

#39000
1aaaaa
0aaaab
0aaaac

#40000
0aaaaa

#41000
1aaaaa
1aaaab
1aaaac

#42000
0aaaaa

#43000
1aaaaa

#44000
0aaaaa

#45000
1aaaaa
b101100000010 aaaaf
b10 aaaag

#46000
0aaaaa

#47000
1aaaaa
0aaaab
0aaaac
bXXXXXXXXXXXXXXXX aaaaf
bXXXXXXXXXXXXXXXX aaaag

#48000
0aaaaa

#49000
1aaaaa
1aaaab
1aaaac

#50000
0aaaaa

#51000
1aaaaa

#52000
0aaaaa

#53000
1aaaaa

#54000
0aaaaa

#55000
1aaaaa
0aaaab
0aaaac

#56000
0aaaaa

#57000
1aaaaa
1aaaab
1aaaac

#58000
0aaaaa

#59000
1aaaaa

#60000
0aaaaa

#61000
1aaaaa
b101100000011 aaaaf
b11 aaaag

#62000
0aaaaa

#63000
1aaaaa
0aaaab
0aaaac
bXXXXXXXXXXXXXXXX aaaaf
bXXXXXXXXXXXXXXXX aaaag

#64000
0aaaaa

#65000
1aaaaa
1aaaab
1aaaac

#66000
0aaaaa

#67000
1aaaaa

#68000
0aaaaa

#69000
1aaaaa

#70000
0aaaaa

#71000
1aaaaa
0aaaab
0aaaac

#72000
0aaaaa

#73000
1aaaaa
1aaaab
1aaaac

#74000
0aaaaa

#75000
1aaaaa

#76000
0aaaaa

#77000
1aaaaa
b101100000100 aaaaf
b100 aaaag

#78000
0aaaaa

#79000
1aaaaa
0aaaab
0aaaac
bXXXXXXXXXXXXXXXX aaaaf
bXXXXXXXXXXXXXXXX aaaag

#80000
0aaaaa

#81000
1aaaaa
1aaaab
1aaaac

#82000
0aaaaa

#83000
1aaaaa

#84000
0aaaaa

#85000
1aaaaa

#86000
0aaaaa

#87000
1aaaaa
0aaaab
0aaaac

#88000
0aaaaa

#89000
1aaaaa
1aaaab
1aaaac

#90000
0aaaaa

#91000
1aaaaa

#92000
0aaaaa

#93000
1aaaaa
b101100000101 aaaaf
b101 aaaag

#94000
0aaaaa

#95000
1aaaaa
0aaaab
0aaaac
bXXXXXXXXXXXXXXXX aaaaf
bXXXXXXXXXXXXXXXX aaaag

#96000
0aaaaa

#97000
1aaaaa
1aaaab
1aaaac

#98000
0aaaaa

#99000
1aaaaa

#100000
0aaaaa

#101000
1aaaaa

#102000
0aaaaa

#103000
1aaaaa
0aaaab
0aaaac

#104000
0aaaaa

#105000
1aaaaa
1aaaab
1aaaac

#106000
0aaaaa

#107000
1aaaaa

#108000
0aaaaa

#109000
1aaaaa
b101100000110 aaaaf
b110 aaaag

#110000
0aaaaa

#111000
1aaaaa
0aaaab
0aaaac
bXXXXXXXXXXXXXXXX aaaaf
bXXXXXXXXXXXXXXXX aaaag

#112000
0aaaaa

#113000
1aaaaa
1aaaab
1aaaac

#114000
0aaaaa

#115000
1aaaaa

#116000
0aaaaa

#117000
1aaaaa

#118000
0aaaaa

#119000
1aaaaa
0aaaab
0aaaac

#120000
0aaaaa

#121000
1aaaaa
1aaaab
1aaaac

#122000
0aaaaa

#123000
1aaaaa

#124000
0aaaaa

#125000
1aaaaa
b101100000111 aaaaf
b111 aaaag

#126000
0aaaaa

#127000
1aaaaa
0aaaab
0aaaac
bXXXXXXXXXXXXXXXX aaaaf
bXXXXXXXXXXXXXXXX aaaag

#128000
0aaaaa

#129000
1aaaaa
1aaaab
1aaaac

#130000
0aaaaa

#131000
1aaaaa

#132000
0aaaaa

#133000
1aaaaa

#134000
0aaaaa

#135000
1aaaaa
0aaaab
0aaaac

#136000
0aaaaa

#137000
1aaaaa
1aaaab
1aaaac

#138000
0aaaaa

#139000
1aaaaa

#140000
0aaaaa

#141000
1aaaaa
b101100001000 aaaaf
b1000 aaaag

#142000
0aaaaa

#143000
1aaaaa
0aaaab
0aaaac
bXXXXXXXXXXXXXXXX aaaaf
bXXXXXXXXXXXXXXXX aaaag

#144000
0aaaaa

#145000
1aaaaa
1aaaab
1aaaac

#146000
0aaaaa

#147000
1aaaaa

#148000
0aaaaa

#149000
1aaaaa

#150000
0aaaaa

#151000
1aaaaa
0aaaab
0aaaac

#152000
0aaaaa

#153000
1aaaaa
1aaaab
1aaaac

#154000
0aaaaa

#155000
1aaaaa

#156000
0aaaaa

#157000
1aaaaa
b101100001001 aaaaf
b1001 aaaag

#158000
0aaaaa

#159000
1aaaaa
0aaaab
0aaaac
bXXXXXXXXXXXXXXXX aaaaf
bXXXXXXXXXXXXXXXX aaaag

#160000
0aaaaa

#161000
1aaaaa
1aaaab
1aaaac

#162000
0aaaaa

#163000
1aaaaa

#164000
0aaaaa

#165000
1aaaaa

#166000
0aaaaa

#167000
1aaaaa
0aaaab
0aaaac

#168000
0aaaaa

#169000
1aaaaa
1aaaab
1aaaac

#170000
0aaaaa

#171000
1aaaaa

#172000
0aaaaa

#173000
1aaaaa
b101100001010 aaaaf
b1010 aaaag

#174000
0aaaaa

#175000
1aaaaa
0aaaab
0aaaac
bXXXXXXXXXXXXXXXX aaaaf
bXXXXXXXXXXXXXXXX aaaag

#176000
0aaaaa

#177000
1aaaaa
1aaaab
1aaaac

#178000
0aaaaa

#179000
1aaaaa

#180000
0aaaaa

#181000
1aaaaa

#182000
0aaaaa

#183000
1aaaaa
0aaaab
0aaaac

#184000
0aaaaa

#185000
1aaaaa
1aaaab
1aaaac

#186000
0aaaaa

#187000
1aaaaa

#188000
0aaaaa

#189000
1aaaaa
b101100001011 aaaaf
b1011 aaaag

#190000
0aaaaa

#191000
1aaaaa
0aaaab
0aaaac
bXXXXXXXXXXXXXXXX aaaaf
bXXXXXXXXXXXXXXXX aaaag

#192000
0aaaaa

#193000
1aaaaa
1aaaab
1aaaac

#194000
0aaaaa

#195000
1aaaaa

#196000
0aaaaa

#197000
1aaaaa

#198000
0aaaaa

#199000
1aaaaa
0aaaab
0aaaac

#200000
0aaaaa

#201000
1aaaaa
1aaaab
1aaaac

#202000
0aaaaa

#203000
1aaaaa

#204000
0aaaaa

#205000
1aaaaa
b101100001100 aaaaf
b1100 aaaag

#206000
0aaaaa

#207000
1aaaaa
0aaaab
0aaaac
bXXXXXXXXXXXXXXXX aaaaf
bXXXXXXXXXXXXXXXX aaaag

#208000
0aaaaa

#209000
1aaaaa
1aaaab
1aaaac

#210000
0aaaaa

#211000
1aaaaa

#212000
0aaaaa

#213000
1aaaaa

#214000
0aaaaa

#215000
1aaaaa
0aaaab
0aaaac

#216000
0aaaaa

#217000
1aaaaa
1aaaab
1aaaac

#218000
0aaaaa

#219000
1aaaaa

#220000
0aaaaa

#221000
1aaaaa
b101100001101 aaaaf
b1101 aaaag

#222000
0aaaaa

#223000
1aaaaa
0aaaab
0aaaac
bXXXXXXXXXXXXXXXX aaaaf
bXXXXXXXXXXXXXXXX aaaag

#224000
0aaaaa

#225000
1aaaaa
1aaaab
1aaaac

#226000
0aaaaa

#227000
1aaaaa

#228000
0aaaaa

#229000
1aaaaa

#230000
0aaaaa

#231000
1aaaaa
0aaaab
0aaaac

#232000
0aaaaa

#233000
1aaaaa
1aaaab
1aaaac

#234000
0aaaaa

#235000
1aaaaa

#236000
0aaaaa

#237000
1aaaaa
b101100001110 aaaaf
b1110 aaaag

#238000
0aaaaa

#239000
1aaaaa
0aaaab
0aaaac
bXXXXXXXXXXXXXXXX aaaaf
bXXXXXXXXXXXXXXXX aaaag

#240000
0aaaaa

#241000
1aaaaa
1aaaab
1aaaac

#242000
0aaaaa

#243000
1aaaaa

#244000
0aaaaa

#245000
1aaaaa

#246000
0aaaaa

#247000
1aaaaa
0aaaab
0aaaac

#248000
0aaaaa

#249000
1aaaaa
1aaaab
1aaaac

#250000
0aaaaa

#251000
1aaaaa

#252000
0aaaaa

#253000
1aaaaa
b101100001111 aaaaf
b1111 aaaag

#254000
0aaaaa

#255000
1aaaaa
0aaaab
0aaaac
bXXXXXXXXXXXXXXXX aaaaf
bXXXXXXXXXXXXXXXX aaaag

#256000
0aaaaa

#257000
1aaaaa
1aaaab
1aaaac

#258000
0aaaaa

#259000
1aaaaa

#260000
0aaaaa

#261000
1aaaaa
b110000000001 aaaaf
b1100100 aaaag
b1100100 aaaal

#262000
0aaaaa

#263000
1aaaaa
0aaaab
0aaaac
bXXXXXXXXXXXXXXXX aaaaf
bXXXXXXXXXXXXXXXX aaaag

#264000
0aaaaa

#265000
1aaaaa
1aaaab
1aaaac

#266000
0aaaaa

#267000
1aaaaa

#268000
0aaaaa

#269000
1aaaaa
b110000000010 aaaaf
b1000 aaaag
b1000 aaaam

#270000
0aaaaa

#271000
1aaaaa
0aaaab
0aaaac
bXXXXXXXXXXXXXXXX aaaaf
bXXXXXXXXXXXXXXXX aaaag

#272000
0aaaaa

#273000
1aaaaa
1aaaab
1aaaac

#274000
0aaaaa

#275000
1aaaaa

#276000
0aaaaa

#277000
1aaaaa
b110000000000 aaaaf
b11 aaaag
b11 aaaan

#278000
0aaaaa

#279000
1aaaaa
0aaaab
0aaaac
1aaaad
1aaaae
bXXXXXXXXXXXXXXXX aaaaf
bXXXXXXXXXXXXXXXX aaaag
1aaaao

#280000
0aaaaa

#281000
1aaaaa

#282000
0aaaaa

#283000
1aaaaa

#284000
0aaaaa

#285000
1aaaaa

#286000
0aaaaa

#287000
1aaaaa

#288000
0aaaaa

#289000
1aaaaa

#290000
0aaaaa

#291000
1aaaaa

#292000
0aaaaa

#293000
1aaaaa

#294000
0aaaaa

#295000
1aaaaa

#296000
0aaaaa

#297000
1aaaaa
0aaaad
0aaaae

#298000
0aaaaa

#299000
1aaaaa
1aaaab
1aaaac
1aaaai
1aaaak
0aaaap
b1111111 aaaar

#300000
0aaaaa

#301000
1aaaaa

#302000
0aaaaa

#303000
1aaaaa
b110000000101 aaaaf
b100100000000 aaaag

#304000
0aaaaa

#305000
1aaaaa
0aaaab
0aaaac

#306000
0aaaaa

#307000
1aaaaa
1aaaab
1aaaac

#308000
0aaaaa

#309000
1aaaaa
b110000000110 aaaaf

#310000
0aaaaa

#311000
1aaaaa
0aaaab
0aaaac
bXXXXXXXXXXXXXXXX aaaaf
bXXXXXXXXXXXXXXXX aaaag
1aaaav

#312000
0aaaaa

#313000
1aaaaa
1aaaab
1aaaac
0aaaav

#314000
0aaaaa

#315000
1aaaaa
b110000000000 aaaaf
b0 aaaag
b0 aaaan

#316000
0aaaaa

#317000
1aaaaa
0aaaab
0aaaac
bXXXXXXXXXXXXXXXX aaaaf
bXXXXXXXXXXXXXXXX aaaag
0aaaah
0aaaai
0aaaaj
0aaaak
0aaaao

